{
	"id": "18b1ae8d-f91b-4335-9e6b-7db0d1d52613",
	"name": "Atividade_cep",
	"values": [
		{
			"key": "url",
			"value": "viacep.com.br/ws",
			"type": "default",
			"enabled": true
		},
		{
			"key": "CepNum",
			"value": "",
			"type": "any",
			"enabled": true
		}
	],
	"_postman_variable_scope": "environment",
	"_postman_exported_at": "2022-01-09T23:59:20.668Z",
	"_postman_exported_using": "Postman/9.8.2"
}